{ "officeCode": "lzbuf", "floor": 6, "name": "Kitchen", "orientation": "vert", "classification": "kitchen-6", "xpos": 636, "ypos": 404, "height": 182, "width": 73 }
{ "officeCode": "lzbuf", "floor": 6, "name": "Storage", "orientation": "horz", "classification": "storage-6-1", "xpos": 636, "ypos": 318, "height": 82, "width": 73 }
{ "officeCode": "lzbuf", "floor": 6, "name": "Storage", "orientation": "vert", "classification": "storage-6-2", "xpos": 689, "ypos": 953, "height": 108, "width": 56 }
{ "officeCode": "lzbuf", "floor": 6, "name": "Men's Room", "orientation": "vert", "classification": "mens-room-6", "xpos": 714, "ypos": 295, "height": 263, "width": 90 }
{ "officeCode": "lzbuf", "floor": 7, "name": "Liazon Cafe", "orientation": "horz", "classification": "liazon-cafe", "xpos": 546, "ypos": 969, "height": 91, "width": 216 }
{ "officeCode": "lzbuf", "floor": 6, "name": "South Stairwell", "orientation": "horz", "classification": "south-stair-6", "xpos": 607, "ypos": 1068, "height": 71, "width": 170 }
{ "officeCode": "lzbuf", "floor": 7, "name": "Lobby", "orientation": "horz", "classification": "lobby-7", "xpos": 589, "ypos": 576, "height": 187, "width": 136 }
{ "officeCode": "lzbuf", "floor": 6, "name": "Women's Room", "orientation": "vert", "classification": "womens-room-6", "xpos": 810, "ypos": 295, "height": 263, "width": 90 }
{ "officeCode": "lzbuf", "floor": 6, "name": "Lobby", "orientation": "horz", "classification": "lobby-6", "xpos": 636, "ypos": 591, "height": 192, "width": 82 }
{ "officeCode": "lzbuf", "floor": 7, "name": "Server Room", "orientation": "horz", "classification": "server-room-7", "xpos": 482, "ypos": 454, "height": 118, "width": 103 }
{ "officeCode": "lzbuf", "floor": 7, "name": "Stairs", "orientation": "horz", "classification": "stairs-7", "xpos": 419, "ypos": 450, "height": 59, "width": 59 }
{ "officeCode": "lzbuf", "floor": 7, "name": "Storage", "orientation": "vert", "classification": "storage-7-1", "xpos": 706, "ypos": 402, "height": 84, "width": 49 }
{ "officeCode": "lzbuf", "floor": 7, "name": "Office Supplies", "orientation": "horz", "classification": "office-supplies-7", "xpos": 725, "ypos": 527, "height": 32, "width": 117 }
{ "officeCode": "lzbuf", "floor": 7, "name": "Storage", "orientation": "horz", "classification": "storage-7-2", "xpos": 100, "ypos": 903, "height": 36, "width": 82 }
{ "officeCode": "lzbuf", "floor": 7, "name": "Women's Room", "orientation": "horz", "classification": "womens-room-7", "xpos": 298, "ypos": 576, "height": 91, "width": 287 }
{ "officeCode": "lzbuf", "floor": 7, "name": "North Stairwell", "orientation": "vert", "classification": "north-stair-7", "xpos": 547, "ypos": 10, "height": 176, "width": 77 }
{ "officeCode": "lzbuf", "floor": 6, "name": "North Stairwell", "orientation": "vert", "classification": "north-stair-6", "xpos": 547, "ypos": 10, "height": 176, "width": 77 }
{ "officeCode": "lzbuf", "floor": 7, "name": "Men's Room", "orientation": "horz", "classification": "mens-room-7", "xpos": 298, "ypos": 672, "height": 91, "width": 287 }
{ "officeCode": "lzbuf", "floor": 8, "name": "Lobby", "orientation": "horz", "classification": "lobby-8", "xpos": 589, "ypos": 482, "height": 298, "width": 131 }
{ "officeCode": "lzbuf", "floor": 8, "name": "Storage", "orientation": "horz", "classification": "storage-8-2", "xpos": 298, "ypos": 767, "height": 29, "width": 214 }
{ "officeCode": "lzbuf", "floor": 8, "name": "Stairs", "orientation": "horz", "classification": "stairs-8", "xpos": 419, "ypos": 450, "height": 59, "width": 59 }
{ "officeCode": "lzbuf", "floor": 8, "name": "Storage", "orientation": "horz", "classification": "storage-8-3", "xpos": 448, "ypos": 1065, "height": 73, "width": 94 }
{ "officeCode": "lzbuf", "floor": 7, "name": "South Stairwell", "orientation": "horz", "classification": "south-stair-7", "xpos": 607, "ypos": 1068, "height": 71, "width": 170 }
{ "officeCode": "lzbuf", "floor": 8, "name": "South Stairwell", "orientation": "horz", "classification": "south-stair-8", "xpos": 607, "ypos": 1068, "height": 71, "width": 170 }
{ "officeCode": "lzbuf", "floor": 8, "name": "Men's Room", "orientation": "horz", "classification": "mens-room-8", "xpos": 298, "ypos": 672, "height": 91, "width": 287 }
{ "officeCode": "lzbuf", "floor": 8, "name": "Storage", "orientation": "horz", "classification": "storage-8-1", "xpos": 631, "ypos": 129, "height": 59, "width": 91 }
{ "officeCode": "lzbuf", "floor": 8, "name": "North Stairwell", "orientation": "vert", "classification": "north-stair-8", "xpos": 547, "ypos": 10, "height": 176, "width": 77 }
{ "officeCode": "lzbuf", "floor": 8, "name": "Women's Room", "orientation": "horz", "classification": "womens-room-8", "xpos": 298, "ypos": 576, "height": 91, "width": 287 }
{ "officeCode": "lzbuf", "floor": 6, "name": "Observation 2", "orientation": "vert", "classification": "observation-6-2", "xpos": 618, "ypos": 953, "height": 108, "width": 67 }