officeCode,floor,seat,orientation,classification,xpos,ypos,height,width
lzbuf,6,060103,horz,employee,52,1115,,
lzbuf,6,060113,horz,employee,423,1115,,
lzbuf,6,060112,horz,employee,369,1115,,
lzbuf,6,060207,vert,employee,219,1084,,
lzbuf,6,060208,vert,employee,242,1084,,
lzbuf,6,060302,horz,employee,9,1045,,
lzbuf,6,060303,horz,employee,63,1045,,
lzbuf,6,060110,horz,employee,300,1115,,
lzbuf,6,060311,horz,employee,354,1045,,
lzbuf,6,060310,horz,employee,300,1045,,
lzbuf,6,060313,horz,employee,408,1045,,
lzbuf,6,060402,horz,employee,9,1022,,
lzbuf,6,060405,horz,employee,117,1022,,
lzbuf,6,060403,horz,employee,63,1022,,
lzbuf,6,060410,horz,employee,300,1022,,
lzbuf,6,060305,horz,employee,117,1045,,
lzbuf,6,060411,horz,employee,354,1022,,
lzbuf,6,060502,horz,employee,30,951,,
lzbuf,6,060413,horz,employee,408,1022,,
lzbuf,6,060506,horz,employee,188,952,,
lzbuf,6,060510,horz,employee,300,951,,
lzbuf,6,060504,horz,employee,84,951,,
lzbuf,6,060513,horz,employee,429,951,,
lzbuf,6,060511,horz,employee,375,951,,
lzbuf,6,060902,horz,employee,9,826,,
lzbuf,6,060702,vert,employee,57,893,,
lzbuf,6,060903,horz,employee,63,826,,
lzbuf,6,060905,horz,employee,117,826,,
lzbuf,6,061002,horz,employee,9,803,,
lzbuf,6,061003,horz,employee,63,803,,
lzbuf,6,061005,horz,employee,117,803,,
lzbuf,6,060705,vert,employee,125,893,,
lzbuf,6,061125,horz,employee,848,740,,
lzbuf,6,061206,horz,employee,189,741,,
lzbuf,6,061302,horz,manager,9,600,,
lzbuf,6,061325,horz,employee,848,717,,
lzbuf,6,061305,vert,employee,130,710,,
lzbuf,6,061425,horz,employee,848,655,,
lzbuf,6,061426,horz,employee,901,655,,
lzbuf,6,061203,horz,employee,72,741,,
lzbuf,6,061525,horz,employee,848,632,,
lzbuf,6,061526,horz,employee,901,632,,
lzbuf,6,061505,horz,employee,129,600,,
lzbuf,6,061506,horz,employee,183,600,,
lzbuf,6,061605,horz,employee,114,573,,
lzbuf,6,061603,horz,employee,60,573,,
lzbuf,6,061625,horz,employee,848,562,,
lzbuf,6,061902,vert,employee,45,470,,
lzbuf,6,061905,vert,employee,161,470,,
lzbuf,6,061903,vert,employee,68,470,,
lzbuf,6,061906,vert,employee,184,470,,
lzbuf,6,062002,vert,employee,45,416,,
lzbuf,6,062003,vert,employee,68,416,,
lzbuf,6,062005,vert,employee,161,416,,
lzbuf,6,062006,vert,employee,184,416,,
lzbuf,6,062030,horz,employee,1044,450,,
lzbuf,6,062029,horz,employee,990,450,,
lzbuf,6,062128,horz,employee,968,383,,
lzbuf,6,062130,horz,employee,1022,383,,
lzbuf,6,062131,horz,employee,1076,383,,
lzbuf,6,062230,horz,employee,1022,360,,
lzbuf,6,062228,horz,employee,968,360,,
lzbuf,6,062402,vert,employee,45,291,,
lzbuf,6,062403,vert,employee,68,291,,
lzbuf,6,062231,horz,employee,1076,360,,
lzbuf,6,062405,vert,employee,161,291,,
lzbuf,6,062406,vert,employee,184,291,,
lzbuf,6,062428,horz,employee,963,293,,
lzbuf,6,062430,horz,employee,1017,293,,
lzbuf,6,062433,horz,employee,1125,293,,
lzbuf,6,062431,horz,employee,1071,293,,
lzbuf,6,062502,vert,employee,45,237,,
lzbuf,6,062503,vert,employee,68,237,,
lzbuf,6,062505,vert,employee,161,237,,
lzbuf,6,062702,horz,employee,36,180,,
lzbuf,6,062506,vert,employee,184,237,,
lzbuf,6,062713,horz,employee,412,174,,
lzbuf,6,062714,horz,employee,466,174,,
lzbuf,6,062704,horz,employee,90,180,,
lzbuf,6,062733,horz,employee,1138,157,,
lzbuf,6,062734,horz,employee,1192,157,,
lzbuf,6,062802,horz,employee,36,157,,
lzbuf,6,062804,horz,employee,90,157,,
lzbuf,6,062813,horz,employee,412,151,,
lzbuf,6,062828,horz,employee,947,158,,
lzbuf,6,062829,horz,employee,1001,158,,
lzbuf,6,062902,horz,employee,9,86,,
lzbuf,6,062903,horz,employee,63,86,,
lzbuf,6,062906,vert,employee,175,86,,
lzbuf,6,062907,vert,employee,198,86,,
lzbuf,6,062814,horz,employee,466,151,,
lzbuf,6,062910,vert,employee,299,96,,
lzbuf,6,062912,horz,employee,378,80,,
lzbuf,6,062909,vert,employee,272,117,,
lzbuf,6,062913,horz,employee,432,80,,
lzbuf,6,062915,horz,employee,486,80,,
lzbuf,6,062926,vert,employee,919,126,,
lzbuf,6,062928,horz,employee,947,135,,
lzbuf,6,062933,horz,employee,1138,134,,
lzbuf,6,062934,horz,employee,1192,134,,
lzbuf,6,062929,horz,employee,1001,135,,
lzbuf,6,063002,horz,employee,9,63,,
lzbuf,6,063003,horz,employee,63,63,,
lzbuf,6,063009,vert,employee,272,63,,
lzbuf,6,063019,vert,employee,630,63,,
lzbuf,6,063021,vert,employee,728,67,,
lzbuf,6,063024,vert,employee,833,72,,
lzbuf,6,063020,vert,employee,705,67,,
lzbuf,6,063025,vert,employee,856,72,,
lzbuf,6,063026,vert,employee,919,72,,
lzbuf,6,063028,horz,employee,947,67,,
lzbuf,6,063029,horz,employee,1001,67,,
lzbuf,6,063034,horz,employee,1192,67,,
lzbuf,6,063106,vert,employee,175,32,,
lzbuf,6,063033,horz,employee,1138,67,,
lzbuf,6,063107,vert,employee,198,32,,
lzbuf,6,063109,vert,employee,272,9,,
lzbuf,6,063110,vert,employee,299,42,,
lzbuf,6,063112,horz,employee,378,57,,
lzbuf,6,063115,horz,employee,486,57,,
lzbuf,6,060104,horz,employee,106,1115,,
lzbuf,6,063120,vert,employee,705,13,,
lzbuf,6,063121,vert,employee,728,13,,
lzbuf,6,063124,vert,employee,833,18,,
lzbuf,6,063125,vert,employee,856,18,,
lzbuf,6,063119,vert,employee,630,9,,
lzbuf,6,063113,horz,employee,432,57,,
lzbuf,6,063129,horz,employee,1001,45,,
lzbuf,6,063133,horz,employee,1138,44,,
lzbuf,6,063134,horz,employee,1192,44,,
lzbuf,6,063128,horz,employee,947,45,,
lzbuf,7,070209,vert,manager,293,1075,,
lzbuf,7,070212,vert,manager,392,1075,,
lzbuf,7,070214,vert,manager,446,1075,,
lzbuf,7,070409,vert,employee,293,983,,
lzbuf,6,063126,vert,employee,919,18,,
lzbuf,7,070413,vert,employee,458,983,,
lzbuf,7,070412,vert,employee,386,983,,
lzbuf,7,070411,vert,employee,367,983,,
lzbuf,7,070414,vert,employee,477,983,,
lzbuf,7,070609,vert,employee,293,926,,
lzbuf,7,070612,vert,employee,386,926,,
lzbuf,7,070613,vert,employee,458,926,,
lzbuf,7,070614,vert,employee,477,926,,
lzbuf,7,070721,vert,employee,724,900,45,
lzbuf,7,070723,vert,employee,797,891,,
lzbuf,7,070616,horz,employee,543,946,,
lzbuf,7,070823,vert,employee,797,834,,
lzbuf,7,070821,vert,employee,724,843,,
lzbuf,7,070824,vert,employee,816,834,,
lzbuf,7,070825,vert ewa,employee,884,842,,
lzbuf,7,070618,horz,employee,600,946,,
lzbuf,7,070912,vert,employee,386,823,,
lzbuf,7,070913,vert,employee,460,823,,
lzbuf,7,070914,vert,employee,479,823,,
lzbuf,7,070909,vert,employee,293,823,,
lzbuf,7,070916,vert,employee,552,823,,
lzbuf,7,070917,vert,employee,571,823,,
lzbuf,7,070911,vert,employee,367,823,,
lzbuf,7,071005,vert,employee,145,781,,
lzbuf,7,071007,vert,employee,223,781,,
lzbuf,7,071011,vert,employee,367,766,,
lzbuf,7,071013,vert,employee,460,766,,
lzbuf,7,071012,vert,employee,386,766,,
lzbuf,7,071014,vert,employee,479,766,,
lzbuf,7,071016,vert,employee,552,766,,
lzbuf,7,071017,vert,employee,571,766,,
lzbuf,7,071009,vert,employee,293,766,,
lzbuf,7,071024,vert,employee,816,777,,
lzbuf,7,071026,vert ewa,employee,909,790,,
lzbuf,7,071023,vert,employee,797,777,,
lzbuf,7,071104,vert,employee,126,724,,
lzbuf,7,071107,vert,employee,223,724,,
lzbuf,7,071302,horz,manager,9,672,,
lzbuf,7,071304,vert,employee,126,667,,
lzbuf,7,071224,vert,employee,826,703,,
lzbuf,7,071307,vert,employee,223,667,,
lzbuf,7,071326,vert,employee,905,673,,
lzbuf,7,071327,vert,employee,924,673,,
lzbuf,7,071021,vert,employee,724,786,,
lzbuf,7,071402,horz,manager,9,618,,
lzbuf,7,071404,vert,employee,126,610,,
lzbuf,7,071405,vert,employee,145,610,,
lzbuf,7,071305,vert,employee,145,667,,
lzbuf,7,071524,vert,employee,826,589,,
lzbuf,7,071407,vert,employee,223,610,,
lzbuf,7,071527,vert,employee,924,616,,
lzbuf,7,071526,vert,employee,905,616,,
lzbuf,7,071627,vert,employee,924,559,,
lzbuf,7,071626,vert,employee,905,559,,
lzbuf,7,071706,horz,employee,185,538,,
lzbuf,7,071424,vert,employee,826,646,,
lzbuf,7,071824,vert,employee,848,522,,
lzbuf,7,071830,vert ewa,manager,1016,502,,
lzbuf,7,071806,horz,employee,185,519,,
lzbuf,7,071906,horz,employee,185,445,,
lzbuf,7,071905,horz,employee,129,445,,
lzbuf,7,072024,vert,employee,842,414,,
lzbuf,7,072025,vert,employee,861,414,,
lzbuf,7,072026,vert,employee,945,414,,
lzbuf,7,072031,vert ewa,manager,1058,417,,
lzbuf,7,072105,horz,employee,129,426,,
lzbuf,7,072106,horz,employee,185,426,,
lzbuf,7,072217,horz,employee,550,356,,
lzbuf,7,072218,horz,employee,607,356,,
lzbuf,7,072224,vert,employee,842,357,,
lzbuf,7,071805,horz,employee,129,519,,
lzbuf,7,072028,vert,employee,964,414,,
lzbuf,7,072301,vert,employee,9,318,,
lzbuf,7,072303,vert,employee,83,318,,
lzbuf,7,072304,vert,employee,102,318,,
lzbuf,7,072305,vert,employee,175,318,,
lzbuf,7,072307,vert,employee,194,318,,
lzbuf,7,072308,vert,employee,268,318,,
lzbuf,7,072228,vert,employee,964,357,,
lzbuf,7,072309,vert,employee,287,318,,
lzbuf,7,072310,vert,employee,360,318,,
lzbuf,7,072312,vert,employee,379,318,,
lzbuf,7,072313,vert,employee,453,318,,
lzbuf,7,072314,vert,employee,472,318,,
lzbuf,7,072317,horz,employee,550,336,,
lzbuf,7,072322,vert,employee,768,300,,
lzbuf,7,072324,vert,employee,842,300,,
lzbuf,7,072325,vert,employee,861,300,,
lzbuf,7,072326,vert,employee,945,300,,
lzbuf,7,072226,vert,employee,945,357,,
lzbuf,7,072328,vert,employee,964,300,,
lzbuf,7,072329,vert,employee,1037,300,,
lzbuf,7,072318,horz,employee,607,336,,
lzbuf,7,072330,vert,employee,1056,300,,
lzbuf,7,072403,vert,employee,83,261,,
lzbuf,7,072401,vert,employee,9,261,,
lzbuf,7,072404,vert,employee,102,261,,
lzbuf,7,072405,vert,employee,175,261,,
lzbuf,7,072408,vert,employee,268,261,,
lzbuf,6,061626,horz,employee,902,562,,
lzbuf,7,072410,vert,employee,360,261,,
lzbuf,7,072412,vert,employee,379,261,,
lzbuf,7,072409,vert,employee,287,261,,
lzbuf,7,072407,vert,employee,194,261,,
lzbuf,7,072414,vert,employee,472,261,,
lzbuf,7,072413,vert,employee,453,261,,
lzbuf,7,072417,horz,employee,550,256,,
lzbuf,7,072418,horz,employee,607,256,,
lzbuf,7,072517,horz,employee,550,236,,
lzbuf,7,072524,vert,employee,842,243,,
lzbuf,7,072518,horz,employee,607,236,,
lzbuf,7,072525,vert,employee,861,243,,
lzbuf,7,072522,vert,employee,768,243,,
lzbuf,7,072526,vert,employee,945,243,,
lzbuf,7,072528,vert,employee,964,243,,
lzbuf,7,072529,vert,employee,1037,243,,
lzbuf,7,072532,vert,employee,1129,243,,
lzbuf,7,072530,vert,employee,1056,243,,
lzbuf,7,072332,vert,employee,1129,300,,
lzbuf,7,072604,vert,employee,102,204,,
lzbuf,7,072605,vert,employee,175,204,,
lzbuf,7,072603,vert,employee,83,204,,
lzbuf,7,072608,vert,employee,268,204,,
lzbuf,7,072607,vert,employee,194,204,,
lzbuf,7,072609,vert,employee,287,204,,
lzbuf,7,072610,vert,employee,360,204,,
lzbuf,7,072612,vert,employee,379,204,,
lzbuf,7,072533,vert,employee,1148,243,,
lzbuf,7,072902,horz,manager,9,102,,
lzbuf,7,072904,vert,employee,117,96,,
lzbuf,7,072905,vert,employee,136,96,,
lzbuf,7,072906,vert,employee,209,96,,
lzbuf,7,072907,vert,employee,228,96,,
lzbuf,7,072909,vert,employee,302,96,,
lzbuf,7,072601,vert,employee,9,204,,
lzbuf,7,072613,vert,employee,453,204,,
lzbuf,7,072910,vert,employee,321,96,,
lzbuf,7,072925,vert,employee,864,97,,
lzbuf,7,072915,horz,manager,477,102,,
lzbuf,7,072911,vert,employee,394,96,,
lzbuf,7,073006,vert,employee,209,39,,
lzbuf,7,073004,vert,employee,117,39,,
lzbuf,7,073005,vert,employee,136,39,,
lzbuf,7,073007,vert,employee,228,39,,
lzbuf,7,073009,vert,employee,302,39,,
lzbuf,7,072913,vert,employee,413,96,,
lzbuf,7,073011,vert,employee,394,39,,
lzbuf,7,073021,horz,manager it,707,71,,
lzbuf,7,073025,vert,employee,864,34,,
lzbuf,7,073102,horz,manager,9,48,,
lzbuf,7,073115,horz,manager,477,48,,
lzbuf,7,073120,horz,manager it,630,70,,
lzbuf,8,080112,vert,employee,424,1080,,
lzbuf,7,073013,vert,employee,413,39,,
lzbuf,7,073010,vert,employee,321,39,,
lzbuf,8,080411,vert,employee,358,1001,,
lzbuf,8,080410,vert,employee,339,1001,,
lzbuf,8,080512,vert,employee,435,967,,
lzbuf,8,080514,vert,employee,454,967,,
lzbuf,8,080515,vert,employee,527,967,,
lzbuf,8,080516,vert,employee,546,967,,
lzbuf,8,080518,vert,employee,619,967,,
lzbuf,8,080520,vert,employee,712,967,,
lzbuf,8,080521,vert,employee,731,967,,
lzbuf,8,080612,vert,employee,435,910,,
lzbuf,8,080614,vert,employee,454,910,,
lzbuf,8,080616,vert,employee,546,910,,
lzbuf,8,080210,vert,employee,339,1058,,
lzbuf,8,080618,vert,employee,619,910,,
lzbuf,8,080211,vert,employee,358,1058,,
lzbuf,8,080519,vert,employee,638,967,,
lzbuf,8,080619,vert,employee,638,910,,
lzbuf,8,080814,vert,employee,454,853,,
lzbuf,8,080812,vert,employee,435,853,,
lzbuf,8,080816,vert,employee,546,853,,
lzbuf,8,080815,vert,employee,527,853,,
lzbuf,8,080819,vert,employee,638,853,,
lzbuf,8,080818,vert,employee,619,853,,
lzbuf,8,080820,vert,employee,712,853,,
lzbuf,8,080821,vert,employee,731,853,,
lzbuf,8,080824,vert,manager,823,853,,
lzbuf,8,081019,horz,employee,652,785,,
lzbuf,8,080623,vert,employee,804,910,,
lzbuf,8,081021,horz,employee,709,785,,
lzbuf,8,081104,horz,employee,114,764,,
lzbuf,8,081022,horz,employee,766,785,,
lzbuf,8,080621,vert,employee,731,910,,
lzbuf,8,081106,horz,employee,184,764,,
lzbuf,8,080823,vert,employee,804,853,,
lzbuf,8,081302,horz,manager,9,667,,
lzbuf,8,081305,horz,employee,125,671,,
lzbuf,8,081306,horz,employee,182,671,,
lzbuf,8,081405,horz,employee,125,652,,
lzbuf,8,081406,horz,employee,184,573,,
lzbuf,8,081418,vert,manager,589,641,,
lzbuf,8,081204,horz,employee,114,745,,
lzbuf,8,081502,horz,manager,9,581,,
lzbuf,8,081604,horz,employee,114,573,,
lzbuf,8,081606,horz,employee,182,652,,
lzbuf,8,081704,horz,employee,114,554,,
lzbuf,8,081706,horz,employee,184,554,,
lzbuf,8,081802,horz,manager,9,487,,
lzbuf,8,081206,horz,employee,184,745,,
lzbuf,8,082002,horz,manager,9,433,,
lzbuf,8,081906,horz,employee,182,479,,
lzbuf,8,082005,horz,employee,125,460,,
lzbuf,8,082006,horz,employee,182,460,,
lzbuf,8,082104,horz,employee,103,375,,
lzbuf,8,082108,horz,employee,250,375,,
lzbuf,8,081905,horz,employee,125,479,,
lzbuf,8,082111,horz,employee,364,375,,
lzbuf,8,081124,horz,employee,829,764,,
lzbuf,8,082229,horz,employee,973,367,,
lzbuf,8,082113,horz,employee,421,375,,
lzbuf,8,082230,horz,employee,1030,367,,
lzbuf,8,082304,horz,employee,103,356,,
lzbuf,8,082302,horz,manager,9,313,,
lzbuf,8,082308,horz,employee,250,356,,
lzbuf,8,082306,horz,employee,160,356,,
lzbuf,8,082224,horz,employee,819,367,,
lzbuf,8,082313,horz,employee,421,356,,
lzbuf,8,082223,horz,employee,762,367,,
lzbuf,8,082323,horz,employee,762,348,,
lzbuf,8,082310,horz,employee,307,356,,
lzbuf,8,082324,horz,employee,819,348,,
lzbuf,8,082311,horz,employee,364,356,,
lzbuf,8,082330,horz,employee,1030,348,,
lzbuf,8,082326,horz,employee,875,348,,
lzbuf,8,082404,horz,employee,103,283,,
lzbuf,8,082329,horz,employee,973,348,,
lzbuf,8,082406,horz,employee,160,283,,
lzbuf,8,082408,horz,employee,250,283,,
lzbuf,8,082423,horz,employee,762,278,,
lzbuf,8,082424,horz,employee,819,278,,
lzbuf,8,082413,horz,employee,421,283,,
lzbuf,8,082426,horz,employee,875,278,,
lzbuf,8,082429,horz,employee,973,278,,
lzbuf,8,082432,horz,employee,1087,278,,
lzbuf,8,082430,horz,employee,1030,278,,
lzbuf,8,082410,horz,employee,307,283,,
lzbuf,8,082411,horz,employee,364,283,,
lzbuf,8,082502,horz,manager,9,259,,
lzbuf,8,082508,horz,employee,250,264,,
lzbuf,8,082506,horz,employee,160,264,,
lzbuf,8,082510,horz,employee,307,264,,
lzbuf,8,082504,horz,employee,103,264,,
lzbuf,8,082511,horz,employee,364,264,,
lzbuf,8,082513,horz,employee,421,264,,
lzbuf,8,082523,horz,employee,762,259,,
lzbuf,8,082524,horz,employee,819,259,,
lzbuf,8,082532,horz,employee,1087,259,,
lzbuf,8,082604,horz,employee,103,191,,
lzbuf,8,082529,horz,employee,973,259,,
lzbuf,8,082708,horz,employee,250,191,,
lzbuf,8,082711,horz,employee,364,191,,
lzbuf,8,082723,horz,employee,762,188,,
lzbuf,8,082724,horz,employee,819,188,,
lzbuf,8,082526,horz,employee,875,259,,
lzbuf,8,082530,horz,employee,1030,259,,
lzbuf,8,082729,horz,employee,973,188,,
lzbuf,8,082802,horz,manager,9,183,,
lzbuf,8,082806,horz,employee,160,172,,
lzbuf,8,082804,horz,employee,103,172,,
lzbuf,8,082808,horz,employee,250,172,,
lzbuf,8,082810,horz,employee,307,172,,
lzbuf,8,082823,horz,employee,762,169,,
lzbuf,8,082811,horz,employee,364,172,,
lzbuf,8,082733,horz,employee,1144,188,,
lzbuf,8,082824,horz,employee,819,169,,
lzbuf,8,082830,horz,employee,1030,169,,
lzbuf,8,082829,horz,employee,973,169,,
lzbuf,8,082826,horz,employee,876,169,,
lzbuf,8,082732,horz,employee,1087,188,,
lzbuf,8,082832,horz,employee,1087,169,,
lzbuf,8,082910,horz,employee,307,99,,
lzbuf,8,082911,horz,employee,364,99,,
lzbuf,8,082923,horz,employee,762,99,,
lzbuf,8,082924,horz,employee,819,99,,
lzbuf,8,082926,horz,employee,876,99,,
lzbuf,8,082906,horz,employee,160,99,,
lzbuf,8,082833,horz,employee,1144,169,,
lzbuf,8,082908,horz,employee,250,99,,
lzbuf,8,082929,horz,employee,973,99,,
lzbuf,8,083010,horz,employee,307,80,,
lzbuf,8,083008,horz,employee,250,80,,
lzbuf,8,083011,horz,employee,364,80,,
lzbuf,8,083108,horz,employee,235,10,,
lzbuf,8,083106,horz,employee,178,10,,
lzbuf,8,083109,horz,employee,292,10,,
lzbuf,8,083111,horz,employee,369,10,,
lzbuf,8,082930,horz,employee,1030,99,,
lzbuf,8,083124,vert,manager,806,9,,
lzbuf,8,083122,vert,manager,726,9,,
lzbuf,8,083006,horz,employee,160,80,,
lzbuf,8,083126,vert,manager,860,9,,
lzbuf,8,083114,horz,manager,457,9,,
lzbuf,8,083129,vert,manager,939,9,,
lzbuf,8,083130,vert,manager,993,9,,
lznyc,6,060203,horz,manager,14,547,80,111
lznyc,6,060206,horz,manager,124,547,80,119
lznyc,6,060212,horz,manager,325,547,80,77
lznyc,6,060209,horz,manager,242,547,80,84
lznyc,6,060215,horz,manager,401,547,80,124
lznyc,6,060219,horz,manager,524,547,80,108
lznyc,6,060402,horz,cube,27,494,,
lznyc,6,060802,horz,cube,27,376,,
lznyc,6,060806,horz,cube,129,374,,
lznyc,6,061102,horz,cube,27,298,,
lznyc,6,061202,horz,cube,27,248,,
lznyc,6,061106,horz,cube,129,296,,
lznyc,6,061205,horz,cube,129,249,,
lznyc,6,061302,vert,employee,14,211,,
lznyc,6,061402,horz,cube,27,180,,
lznyc,6,061405,horz,cube,129,171,,
lznyc,6,061602,horz,manager,14,105,76,78
lznyc,6,061605,horz,employee,138,152,,
lznyc,6,061613,horz,employee,384,149,,
lznyc,6,060702,horz,cube,27,425,,
lznyc,6,061802,horz,employee,35,83,,
lznyc,6,061816,horz,employee,461,80,,
lznyc,6,061817,horz,employee,514,80,,
lznyc,6,061819,horz,employee,567,80,,
lznyc,6,061617,horz,employee,514,99,,
lznyc,6,061902,vert,employee,14,19,,
lznyc,6,061904,vert,employee,105,19,,
lznyc,6,061914,horz,employee,408,19,,
lznyc,6,061619,horz,employee,567,99,,
lznyc,6,061916,horz,employee,461,19,,
lznyc,6,061919,horz,employee,567,19,,
lznyc,6,061616,horz,employee,461,99,,
lznyc,6,061917,horz,employee,514,19,,
lzbuf,6,060416,vert,employee,542,980,,
lzbuf,6,060317,horz,employee,558,1040,,
